Added Pin To Net: NetName=NetF1_1 Pin=F2-1
Added Pin To Net: NetName=NetF1_1 Pin=F2R-1
Added Pin To Net: NetName=NetF1_1 Pin=F4-1
Added Pin To Net: NetName=NetF1_1 Pin=F4R-1
Added Room: Name=MotorDriver
