M48
;Layer_Color=9474304
;FILE_FORMAT=2:4
INCH,TZ
;TYPE=PLATED
T1F00S00C0.0200
T2F00S00C0.0276
T3F00S00C0.0335
T4F00S00C0.0354
T5F00S00C0.0402
T6F00S00C0.0433
T7F00S00C0.1000
%
T01
X10800Y11950
X2950Y6650
T02
X9916Y2200
Y3800
X11884
Y2200
X10700Y6039
Y7961
T03
X6678Y17150
X7922Y18950
X7622Y20800
X8750Y20750
X11750
X10222Y17150
X4822
X4550Y15722
X2950
X1350
X1278Y17150
X4378Y18950
X4078Y20800
X4550Y12178
X2950
X1350
T04
X5900Y2200
Y3200
Y4200
Y5200
Y6200
X8900
Y5200
Y4200
Y3200
Y2200
Y7200
Y8200
Y9200
Y10200
Y11200
Y12200
Y13200
Y14200
Y15200
X12500Y15250
Y16250
Y17250
Y14250
Y13250
X5900Y13200
Y12200
Y11200
Y10200
Y9200
Y8200
Y7200
Y14200
Y15200
T05
X1750Y3250
Y4250
Y5250
X3750
Y4250
Y3250
Y7750
Y8750
Y9750
X1750
Y8750
Y7750
X2250Y18750
Y19750
T06
X12550Y8850
Y9850
Y10850
Y11850
X12500Y19000
X11500
X10500
X9500
T07
X1050Y1050
X13050
Y21250
X1050
M30
